…
pairs
```

    ## # A tibble: 1,491 × 7
    ##    rowid lift1 lift2 type   pos    jump made_lift2
    ##    <int> <dbl> <dbl> <chr>  <chr> <dbl> <lgl>     
    ##  1     1  -189   189 snatch 12        0 TRUE      
    ##  2     2  -137   137 snatch 12        0 TRUE      
    ##  3     3  -165   165 snatch 12        0 TRUE      
    ##  4     4  -115   115 snatch 12        0 TRUE      
    ##  5     5   -84    84 snatch 12        0 TRUE      
    ##  6     6  -165   165 snatch 12        0 TRUE      
    ##  7     7  -130   130 snatch 12        0 TRUE      
    ##  8     8  -101   101 snatch 12        0 TRUE      
    ##  9     9  -151   151 snatch 12        0 TRUE      
    ## 10    10  -102  -102 snatch 12        0 FALSE     
    ## # … with 1,481 more rows
…
